<mxfile host="65bd71144e">
    <diagram id="n6oD5MPJf3kxmsmj3lEb" name="Page-1">
        <mxGraphModel dx="1897" dy="511" grid="1" gridSize="10" guides="1" tooltips="1" connect="1" arrows="1" fold="1" page="1" pageScale="1" pageWidth="850" pageHeight="1100" background="#FFFFFF" math="0" shadow="0">
            <root>
                <mxCell id="0"/>
                <mxCell id="1" parent="0"/>
                <mxCell id="Gi0JTffOu8BH-8T9kREJ-21" value="" style="endArrow=classic;html=1;rounded=0;entryX=0;entryY=0.5;entryDx=0;entryDy=0;" parent="1" target="Gi0JTffOu8BH-8T9kREJ-10" edge="1">
                    <mxGeometry width="50" height="50" relative="1" as="geometry">
                        <mxPoint x="130" y="250" as="sourcePoint"/>
                        <mxPoint x="270" y="250" as="targetPoint"/>
                    </mxGeometry>
                </mxCell>
                <mxCell id="Gi0JTffOu8BH-8T9kREJ-22" value="" style="endArrow=classic;html=1;rounded=0;" parent="1" source="Gi0JTffOu8BH-8T9kREJ-10" target="Gi0JTffOu8BH-8T9kREJ-27" edge="1">
                    <mxGeometry width="50" height="50" relative="1" as="geometry">
                        <mxPoint x="140" y="260" as="sourcePoint"/>
                        <mxPoint x="459" y="250" as="targetPoint"/>
                    </mxGeometry>
                </mxCell>
                <mxCell id="Gi0JTffOu8BH-8T9kREJ-24" value="Démarrage du pod" style="rounded=0;whiteSpace=wrap;html=1;fillColor=#d5e8d4;strokeColor=#82b366;" parent="1" vertex="1">
                    <mxGeometry x="-70" y="220" width="120" height="60" as="geometry"/>
                </mxCell>
                <mxCell id="Gi0JTffOu8BH-8T9kREJ-25" value="" style="endArrow=classic;html=1;rounded=0;" parent="1" source="Gi0JTffOu8BH-8T9kREJ-24" target="Gi0JTffOu8BH-8T9kREJ-1" edge="1">
                    <mxGeometry width="50" height="50" relative="1" as="geometry">
                        <mxPoint x="140" y="260" as="sourcePoint"/>
                        <mxPoint x="285" y="260" as="targetPoint"/>
                    </mxGeometry>
                </mxCell>
                <mxCell id="Gi0JTffOu8BH-8T9kREJ-30" value="" style="group" parent="1" vertex="1" connectable="0">
                    <mxGeometry x="125" y="210" width="140" height="150" as="geometry"/>
                </mxCell>
                <mxCell id="Gi0JTffOu8BH-8T9kREJ-1" value="Init container 1" style="ellipse;whiteSpace=wrap;html=1;aspect=fixed;" parent="Gi0JTffOu8BH-8T9kREJ-30" vertex="1">
                    <mxGeometry x="30" width="80" height="80" as="geometry"/>
                </mxCell>
                <mxCell id="Gi0JTffOu8BH-8T9kREJ-4" value="" style="endArrow=oval;html=1;rounded=0;entryX=0;entryY=0.5;entryDx=0;entryDy=0;endFill=1;startArrow=none;startFill=0;fillColor=#d5e8d4;strokeColor=#82b366;" parent="Gi0JTffOu8BH-8T9kREJ-30" target="Gi0JTffOu8BH-8T9kREJ-1" edge="1">
                    <mxGeometry width="50" height="50" relative="1" as="geometry">
                        <mxPoint x="30" y="120" as="sourcePoint"/>
                        <mxPoint x="430" y="160" as="targetPoint"/>
                    </mxGeometry>
                </mxCell>
                <mxCell id="Gi0JTffOu8BH-8T9kREJ-5" value="" style="endArrow=oval;html=1;rounded=0;entryX=0;entryY=0.5;entryDx=0;entryDy=0;endFill=1;startArrow=none;startFill=0;fillColor=#f8cecc;strokeColor=#b85450;" parent="Gi0JTffOu8BH-8T9kREJ-30" edge="1">
                    <mxGeometry width="50" height="50" relative="1" as="geometry">
                        <mxPoint x="110" y="120" as="sourcePoint"/>
                        <mxPoint x="110" y="40" as="targetPoint"/>
                    </mxGeometry>
                </mxCell>
                <mxCell id="Gi0JTffOu8BH-8T9kREJ-6" value="Start" style="text;html=1;strokeColor=none;fillColor=none;align=center;verticalAlign=middle;whiteSpace=wrap;rounded=0;" parent="Gi0JTffOu8BH-8T9kREJ-30" vertex="1">
                    <mxGeometry y="120" width="60" height="30" as="geometry"/>
                </mxCell>
                <mxCell id="Gi0JTffOu8BH-8T9kREJ-7" value="Stop" style="text;html=1;strokeColor=none;fillColor=none;align=center;verticalAlign=middle;whiteSpace=wrap;rounded=0;" parent="Gi0JTffOu8BH-8T9kREJ-30" vertex="1">
                    <mxGeometry x="80" y="120" width="60" height="30" as="geometry"/>
                </mxCell>
                <mxCell id="Gi0JTffOu8BH-8T9kREJ-31" value="" style="group" parent="1" vertex="1" connectable="0">
                    <mxGeometry x="330" y="210" width="140" height="150" as="geometry"/>
                </mxCell>
                <mxCell id="Gi0JTffOu8BH-8T9kREJ-10" value="Init container 2" style="ellipse;whiteSpace=wrap;html=1;aspect=fixed;" parent="Gi0JTffOu8BH-8T9kREJ-31" vertex="1">
                    <mxGeometry x="30" width="80" height="80" as="geometry"/>
                </mxCell>
                <mxCell id="Gi0JTffOu8BH-8T9kREJ-11" value="" style="endArrow=oval;html=1;rounded=0;entryX=0;entryY=0.5;entryDx=0;entryDy=0;endFill=1;startArrow=none;startFill=0;fillColor=#d5e8d4;strokeColor=#82b366;" parent="Gi0JTffOu8BH-8T9kREJ-31" target="Gi0JTffOu8BH-8T9kREJ-10" edge="1">
                    <mxGeometry width="50" height="50" relative="1" as="geometry">
                        <mxPoint x="30" y="120" as="sourcePoint"/>
                        <mxPoint x="430" y="160" as="targetPoint"/>
                    </mxGeometry>
                </mxCell>
                <mxCell id="Gi0JTffOu8BH-8T9kREJ-12" value="" style="endArrow=oval;html=1;rounded=0;entryX=0;entryY=0.5;entryDx=0;entryDy=0;endFill=1;startArrow=none;startFill=0;fillColor=#f8cecc;strokeColor=#b85450;" parent="Gi0JTffOu8BH-8T9kREJ-31" edge="1">
                    <mxGeometry width="50" height="50" relative="1" as="geometry">
                        <mxPoint x="110" y="120" as="sourcePoint"/>
                        <mxPoint x="110" y="40" as="targetPoint"/>
                    </mxGeometry>
                </mxCell>
                <mxCell id="Gi0JTffOu8BH-8T9kREJ-13" value="Start" style="text;html=1;strokeColor=none;fillColor=none;align=center;verticalAlign=middle;whiteSpace=wrap;rounded=0;" parent="Gi0JTffOu8BH-8T9kREJ-31" vertex="1">
                    <mxGeometry y="120" width="60" height="30" as="geometry"/>
                </mxCell>
                <mxCell id="Gi0JTffOu8BH-8T9kREJ-14" value="Stop" style="text;html=1;strokeColor=none;fillColor=none;align=center;verticalAlign=middle;whiteSpace=wrap;rounded=0;" parent="Gi0JTffOu8BH-8T9kREJ-31" vertex="1">
                    <mxGeometry x="80" y="120" width="60" height="30" as="geometry"/>
                </mxCell>
                <mxCell id="Gi0JTffOu8BH-8T9kREJ-33" value="" style="group" parent="1" vertex="1" connectable="0">
                    <mxGeometry x="530" y="220" width="150" height="140" as="geometry"/>
                </mxCell>
                <mxCell id="Gi0JTffOu8BH-8T9kREJ-27" value="App container" style="rounded=1;whiteSpace=wrap;html=1;fillColor=#dae8fc;strokeColor=#6c8ebf;" parent="Gi0JTffOu8BH-8T9kREJ-33" vertex="1">
                    <mxGeometry x="30" width="120" height="60" as="geometry"/>
                </mxCell>
                <mxCell id="Gi0JTffOu8BH-8T9kREJ-28" value="" style="endArrow=oval;html=1;rounded=0;entryX=0;entryY=0.5;entryDx=0;entryDy=0;endFill=1;startArrow=none;startFill=0;fillColor=#d5e8d4;strokeColor=#82b366;" parent="Gi0JTffOu8BH-8T9kREJ-33" target="Gi0JTffOu8BH-8T9kREJ-27" edge="1">
                    <mxGeometry width="50" height="50" relative="1" as="geometry">
                        <mxPoint x="30" y="110" as="sourcePoint"/>
                        <mxPoint x="-110" y="40" as="targetPoint"/>
                    </mxGeometry>
                </mxCell>
                <mxCell id="Gi0JTffOu8BH-8T9kREJ-29" value="Start" style="text;html=1;strokeColor=none;fillColor=none;align=center;verticalAlign=middle;whiteSpace=wrap;rounded=0;" parent="Gi0JTffOu8BH-8T9kREJ-33" vertex="1">
                    <mxGeometry y="110" width="60" height="30" as="geometry"/>
                </mxCell>
            </root>
        </mxGraphModel>
    </diagram>
</mxfile>